%YAML 1.1
%TAG !u! tag:unity3d.com,2011:
--- !u!1045 &1
EditorBuildSettings:
  m_ObjectHideFlags: 0
  serializedVersion: 2
  m_Scenes:
  - enabled: 1
    path: Assets/Scenes/MainScene.unity
    guid: 37e4aae766754a4479776dfea58d076d
  - enabled: 1
    path: Assets/Scenes/Game.unity
    guid: 96c9ae2465834394787e4a4eaac23b74
  m_configObjects: {}
